^C:\USERS\KOKO\SOURCE\REPOS\BITBAMB1\DEBUG\BITBAMB1.OBJ
C:\USERS\KOKO\SOURCE\REPOS\BITBAMB1\DEBUG\BITBAMB1.ILK
C:\USERS\KOKO\SOURCE\REPOS\BITBAMB1\DEBUG\BITBAMB1.EXE
C:\USERS\KOKO\SOURCE\REPOS\BITBAMB1\DEBUG\BITBAMB1.PDB
